
[PHOTO:  Recording initiated  Thu 2-Feb-89 11:28AM]

!ENABLE
!SET TRAP FILE
!TAKE MON:ASMCHI.CMD
[Fork MACRO opening <7.FT3.MONITOR.STANFORD>MNETDV.CHI.3 for reading]
[Fork MACRO opening MNETDV.REL.5 for writing]
MACRO:
[Fork MACRO opening ANAUNV.UNV.2 for reading]
[Fork MACRO opening PROLOG.UNV.2 for reading]
	MNETDV
[Fork MACRO opening <7.FT3.UTILITIES.STANFORD.LOTS>MONSYM.UNV.3 for reading]
[Fork MACRO opening <7.FT3.UTILITIES.STANFORD.LOTS>MACSYM.UNV.2 for reading]
[Fork MACRO opening <7.FT3.MONITOR.STANFORD>MNETDV.CHI.3 for reading]
[Fork MACRO opening GLOBS.UNV.4 for reading]

EXIT
[Fork MACRO opening PARLOT.MAC.2 for reading]
[Fork MACRO opening STG.REL.12 for writing]
MACRO:
[Fork MACRO opening <7.FT3.UTILITIES.STANFORD.LOTS>MONSYM.UNV.3 for reading]
[Fork MACRO opening PARNEW.MAC.12 for reading]
[Fork MACRO opening <7.FT3.MONITOR.STANFORD>PARAMS.MAC.1 for reading]
[Fork MACRO opening PROLOG.UNV.2 for reading]
[Fork MACRO opening <7.FT3.MONITOR.STANFORD>STG.CHI.2 for reading]
[Fork MACRO opening PHYPAR.UNV.2 for reading]
[Fork MACRO opening SERCOD.UNV.2 for reading]
[Fork MACRO opening SCAPAR.UNV.2 for reading]
[Fork MACRO opening ANAUNV.UNV.2 for reading]
	STG
[Fork MACRO opening <7.FT3.UTILITIES.STANFORD.LOTS>MACSYM.UNV.2 for reading]
[Fork MACRO opening D36PAR.UNV.2 for reading]
[Fork MACRO opening NIPAR.UNV.2 for reading]
[Fork MACRO opening PARLOT.MAC.2 for reading]
[Fork MACRO opening PARNEW.MAC.12 for reading]
[Fork MACRO opening <7.FT3.MONITOR.STANFORD>PARAMS.MAC.1 for reading]
[Fork MACRO opening <7.FT3.MONITOR.STANFORD>STG.CHI.2 for reading]
[Fork MACRO opening GLOBS.UNV.4 for reading]

EXIT
 End of ASMCHI.CMD.2
!LINK
*@MON:LNKNEW
[Fork LINK opening LNKNEW.CCL.12 for reading]
[Fork LINK opening LNKNEW.CCL.12 for reading]
*@MON:LNKLOT
[Fork LINK opening LNKLOT.CCL.1 for reading]
[Fork LINK opening LNKLOT.CCL.1 for reading]
[Fork LINK opening LDINIT.REL.2 for reading]
[LNKLMN	Loading module LDINIT from file LDINIT.REL.2]
[Fork LINK opening STG.REL.12 for reading]
[LNKLMN	Loading module STG from file STG.REL.12]
%LNKFTH	Fullword value .NODE being truncated to halfword
%LNKFTH	Fullword value ERCOD being truncated to halfword
%LNKFTH	Fullword value XRCOD being truncated to halfword
[Fork LINK opening APRSRV.REL.2 for reading]
[LNKLMN	Loading module APRSRV from file APRSRV.REL.2]
[Fork LINK opening ARP.REL.2 for reading]
[LNKLMN	Loading module ARP from file ARP.REL.2]
[Fork LINK opening CFSSRV.REL.2 for reading]
[LNKLMN	Loading module CFSSRV from file CFSSRV.REL.2]
[Fork LINK opening CFSUSR.REL.2 for reading]
[LNKLMN	Loading module CFSUSR from file CFSUSR.REL.2]
[Fork LINK opening CIDLL.REL.2 for reading]
[Fork LINK opening CLUDGR.REL.2 for reading]
[LNKLMN	Loading module CLUDGR from file CLUDGR.REL.2]
%LNKFTH	Fullword value .INFO being truncated to halfword
[Fork LINK opening CLUFRK.REL.2 for reading]
[LNKLMN	Loading module CLUFRK from file CLUFRK.REL.2]
[Fork LINK opening COMND.REL.2 for reading]
[LNKLMN	Loading module COMND from file COMND.REL.2]
[Fork LINK opening CRYPT.REL.2 for reading]
[LNKLMN	Loading module CRYPT from file CRYPT.REL.2]
[Fork LINK opening D36COM.REL.2 for reading]
[LNKLMN	Loading module D36COM from file D36COM.REL.2]
[Fork LINK opening DATIME.REL.2 for reading]
[LNKLMN	Loading module DATIME from file DATIME.REL.2]
%LNKFTH	Fullword value .IDCNV being truncated to halfword
%LNKFTH	Fullword value .IDTIM being truncated to halfword
%LNKFTH	Fullword value .IDTNC being truncated to halfword
%LNKFTH	Fullword value .ODCNV being truncated to halfword
%LNKFTH	Fullword value .ODTIM being truncated to halfword
%LNKFTH	Fullword value .ODTNC being truncated to halfword
[Fork LINK opening DEVICE.REL.2 for reading]
[LNKLMN	Loading module DEVICE from file DEVICE.REL.2]
[Fork LINK opening DIAG.REL.2 for reading]
[LNKLMN	Loading module DIAG from file DIAG.REL.2]
[Fork LINK opening DIRECT.REL.2 for reading]
[LNKLMN	Loading module DIRECT from file DIRECT.REL.2]
[Fork LINK opening DISC.REL.2 for reading]
[LNKLMN	Loading module DISC from file DISC.REL.2]
[Fork LINK opening DOB.REL.2 for reading]
[LNKLMN	Loading module DOB from file DOB.REL.2]
%LNKFTH	Fullword value .DOB being truncated to halfword
[Fork LINK opening DSKALC.REL.2 for reading]
[LNKLMN	Loading module DSKALC from file DSKALC.REL.2]
[Fork LINK opening DTESRV.REL.2 for reading]
[LNKLMN	Loading module DTESRV from file DTESRV.REL.2]
%LNKFTH	Fullword value DNCPYW being truncated to halfword
%LNKFTH	Fullword value DNLENG being truncated to halfword
[Fork LINK opening ENET.REL.2 for reading]
[LNKLMN	Loading module ENET from file ENET.REL.2]
[Fork LINK opening ENQ.REL.2 for reading]
[LNKLMN	Loading module ENQ from file ENQ.REL.2]
[Fork LINK opening ENQSRV.REL.2 for reading]
[LNKLMN	Loading module ENQSRV from file ENQSRV.REL.2]
[Fork LINK opening FESRV.REL.2 for reading]
[LNKLMN	Loading module FESRV from file FESRV.REL.2]
[Fork LINK opening FILINI.REL.2 for reading]
[LNKLMN	Loading module FILINI from file FILINI.REL.2]
[Fork LINK opening FILMSC.REL.2 for reading]
[LNKLMN	Loading module FILMSC from file FILMSC.REL.2]
[Fork LINK opening FORK.REL.2 for reading]
[LNKLMN	Loading module FORK from file FORK.REL.2]
[Fork LINK opening FREE.REL.2 for reading]
[LNKLMN	Loading module FREE from file FREE.REL.2]
[Fork LINK opening FUTILI.REL.2 for reading]
[LNKLMN	Loading module FUTILI from file FUTILI.REL.2]
[Fork LINK opening GETSAV.REL.2 for reading]
[LNKLMN	Loading module GETSAV from file GETSAV.REL.2]
[Fork LINK opening GTDOM.REL.6 for reading]
[LNKLMN	Loading module GTDOM from file GTDOM.REL.6]
[Fork LINK opening GTJFN.REL.2 for reading]
[LNKLMN	Loading module GTJFN from file GTJFN.REL.2]
[Fork LINK opening IMPANX.REL.2 for reading]
[Fork LINK opening IMPDV.REL.2 for reading]
[Fork LINK opening IO.REL.2 for reading]
[LNKLMN	Loading module IO from file IO.REL.2]
[Fork LINK opening IPCF.REL.4 for reading]
[LNKLMN	Loading module IPCF from file IPCF.REL.4]
[Fork LINK opening IPCIDV.REL.2 for reading]
[LNKLMN	Loading module IPCIDV from file IPCIDV.REL.2]
[Fork LINK opening IPFREE.REL.2 for reading]
[LNKLMN	Loading module IPFREE from file IPFREE.REL.2]
[Fork LINK opening IPIPIP.REL.2 for reading]
[LNKLMN	Loading module IPIPIP from file IPIPIP.REL.2]
%LNKFTH	Fullword value ICMCHK being truncated to halfword
%LNKFTH	Fullword value ICMICM being truncated to halfword
%LNKFTH	Fullword value ICMINI being truncated to halfword
%LNKFTH	Fullword value ICMPRC being truncated to halfword
%LNKFTH	Fullword value INQCHK being truncated to halfword
%LNKFTH	Fullword value INQICM being truncated to halfword
%LNKFTH	Fullword value INQINI being truncated to halfword
%LNKFTH	Fullword value INQPRC being truncated to halfword
%LNKFTH	Fullword value TCPICM being truncated to halfword
[Fork LINK opening JSYSA.REL.2 for reading]
[LNKLMN	Loading module JSYSA from file JSYSA.REL.2]
%LNKFTH	Fullword value CLRCLU being truncated to halfword
%LNKFTH	Fullword value CLRTMG being truncated to halfword
%LNKFTH	Fullword value DSTCHK being truncated to halfword
%LNKFTH	Fullword value SETCLU being truncated to halfword
%LNKFTH	Fullword value SETTMG being truncated to halfword
[Fork LINK opening JSYSF.REL.3 for reading]
[LNKLMN	Loading module JSYSF from file JSYSF.REL.3]
[Fork LINK opening JSYSM.REL.4 for reading]
[LNKLMN	Loading module JSYSM from file JSYSM.REL.4]
%LNKFTH	Fullword value .GETNM being truncated to halfword
%LNKFTH	Fullword value .GJINF being truncated to halfword
%LNKFTH	Fullword value .GTDAL being truncated to halfword
%LNKFTH	Fullword value .GTRPI being truncated to halfword
%LNKFTH	Fullword value .HANDS being truncated to halfword
%LNKFTH	Fullword value .IDLE being truncated to halfword
%LNKFTH	Fullword value .LITES being truncated to halfword
%LNKFTH	Fullword value .PEEK being truncated to halfword
%LNKFTH	Fullword value .RUNTM being truncated to halfword
%LNKFTH	Fullword value .SETNM being truncated to halfword
%LNKFTH	Fullword value .SETSN being truncated to halfword
%LNKFTH	Fullword value .SWTCH being truncated to halfword
%LNKFTH	Fullword value .TIME being truncated to halfword
%LNKFTH	Fullword value .USRIO being truncated to halfword
[Fork LINK opening KDDT.REL.2 for reading]
[LNKLMN	Loading module KDDT from file KDDT.REL.2]
%LNKFTH	Fullword value DDTX being truncated to halfword
%LNKFTH	Fullword value DDTX being truncated to halfword
%LNKFTH	Fullword value FAKDDT being truncated to halfword
[Fork LINK opening LATSRV.REL.2 for reading]
[Fork LINK opening LINEPR.REL.2 for reading]
[LNKLMN	Loading module LINEPR from file LINEPR.REL.2]
[Fork LINK opening LOGNAM.REL.2 for reading]
[LNKLMN	Loading module LOGNAM from file LOGNAM.REL.2]
[Fork LINK opening LOOKUP.REL.2 for reading]
[LNKLMN	Loading module LOOKUP from file LOOKUP.REL.2]
[Fork LINK opening MAGTAP.REL.2 for reading]
[LNKLMN	Loading module MAGTAP from file MAGTAP.REL.2]
[Fork LINK opening MDDT.REL.2 for reading]
[LNKLMN	Loading module MDDT from file MDDT.REL.2]
[Fork LINK opening MEXEC.REL.2 for reading]
[LNKLMN	Loading module MEXEC from file MEXEC.REL.2]
%LNKFTH	Fullword value CLSFRK being truncated to halfword
%LNKFTH	Fullword value EQARUN being truncated to halfword
%LNKFTH	Fullword value EQRRUN being truncated to halfword
[Fork LINK opening MFLIN.REL.2 for reading]
[LNKLMN	Loading module MFLIN from file MFLIN.REL.2]
[Fork LINK opening MFLOUT.REL.2 for reading]
[LNKLMN	Loading module MFLOUT from file MFLOUT.REL.2]
[Fork LINK opening MNETDV.REL.5 for reading]
[LNKLMN	Loading module MNETDV from file MNETDV.REL.5]
%LNKFTH	Fullword value HSTINI being truncated to halfword
[Fork LINK opening <7.FT3.UTILITIES.STANFORD.LOTS>MONSYM.REL.3 for reading]
[LNKLMN	Loading module MONSYM from file <7.FT3.UTILITIES.STANFORD.LOTS>MONSYM.RE
L.3]
[Fork LINK opening 088LLS.TMP.1 for reading, writing thawed no updating]
[Fork LINK opening MSTR.REL.2 for reading]
[LNKLMN	Loading module MSTR from file MSTR.REL.2]
[Fork LINK opening PAGEM.REL.2 for reading]
[LNKLMN	Loading module PAGEM from file PAGEM.REL.2]
[Fork LINK opening PAGUTL.REL.2 for reading]
[LNKLMN	Loading module PAGUTL from file PAGUTL.REL.2]
%LNKFTH	Fullword value FAKDDT being truncated to halfword
%LNKFTH	Fullword value XNCOD being truncated to halfword
%LNKFTH	Fullword value XRCOD being truncated to halfword
[Fork LINK opening PHYH2.REL.2 for reading]
[LNKLMN	Loading module PHYH2 from file PHYH2.REL.2]
[Fork LINK opening PHYKLP.REL.2 for reading]
[LNKLMN	Loading module PHYKLP from file PHYKLP.REL.2]
[Fork LINK opening PHYM2.REL.2 for reading]
[LNKLMN	Loading module PHYM2 from file PHYM2.REL.2]
[Fork LINK opening PHYM78.REL.2 for reading]
[LNKLMN	Loading module PHYM78 from file PHYM78.REL.2]
[Fork LINK opening PHYMEI.REL.2 for reading]
[LNKLMN	Loading module PHYMEI from file PHYMEI.REL.2]
[Fork LINK opening PHYMSC.REL.2 for reading]
[LNKLMN	Loading module PHYMSC from file PHYMSC.REL.2]
[Fork LINK opening PHYMVR.REL.2 for reading]
[LNKLMN	Loading module PHYMVR from file PHYMVR.REL.2]
[Fork LINK opening PHYP4.REL.2 for reading]
[LNKLMN	Loading module PHYP4 from file PHYP4.REL.2]
[Fork LINK opening PHYSIO.REL.2 for reading]
[LNKLMN	Loading module PHYSIO from file PHYSIO.REL.2]
[Fork LINK opening PIPE.REL.2 for reading]
[LNKLMN	Loading module PIPE from file PIPE.REL.2]
[Fork LINK opening PKOPR.REL.2 for reading]
[LNKLMN	Loading module PKOPR from file PKOPR.REL.2]
[Fork LINK opening PNVSRV.REL.2 for reading]
[LNKLMN	Loading module PNVSRV from file PNVSRV.REL.2]
[Fork LINK opening PUP.REL.3 for reading]
[LNKLMN	Loading module PUP from file PUP.REL.3]
%LNKFTH	Fullword value PNVIN0 being truncated to halfword
[Fork LINK opening PUPNM.REL.2 for reading]
[LNKLMN	Loading module PUPNM from file PUPNM.REL.2]
[Fork LINK opening RSXSRV.REL.2 for reading]
[LNKLMN	Loading module RSXSRV from file RSXSRV.REL.2]
[Fork LINK opening SCAMPI.REL.2 for reading]
[LNKLMN	Loading module SCAMPI from file SCAMPI.REL.2]
%LNKFTH	Fullword value CLUINI being truncated to halfword
%LNKFTH	Fullword value EQSINI being truncated to halfword
[Fork LINK opening SCHED.REL.2 for reading]
[LNKLMN	Loading module SCHED from file SCHED.REL.2]
[Fork LINK opening SCSJSY.REL.2 for reading]
[LNKLMN	Loading module SCSJSY from file SCSJSY.REL.2]
%LNKFTH	Fullword value SCSINI being truncated to halfword
[Fork LINK opening SWPALC.REL.2 for reading]
[LNKLMN	Loading module SWPALC from file SWPALC.REL.2]
[Fork LINK opening SYSERR.REL.2 for reading]
[LNKLMN	Loading module SYSERR from file SYSERR.REL.2]
[Fork LINK opening TAPE.REL.2 for reading]
[LNKLMN	Loading module TAPE from file TAPE.REL.2]
[Fork LINK opening TCPBBN.REL.2 for reading]
[LNKLMN	Loading module TCPBBN from file TCPBBN.REL.2]
[Fork LINK opening TCPCRC.REL.2 for reading]
[LNKLMN	Loading module TCPCRC from file TCPCRC.REL.2]
[Fork LINK opening TCPJFN.REL.2 for reading]
[LNKLMN	Loading module TCPJFN from file TCPJFN.REL.2]
%LNKFTH	Fullword value HSTHSH being truncated to halfword
%LNKFTH	Fullword value TATTVT being truncated to halfword
%LNKFTH	Fullword value TCPPTM being truncated to halfword
[Fork LINK opening TCPTCP.REL.2 for reading]
[LNKLMN	Loading module TCPTCP from file TCPTCP.REL.2]
%LNKFTH	Fullword value DQ being truncated to halfword
%LNKFTH	Fullword value GETBLK being truncated to halfword
%LNKFTH	Fullword value INITQ being truncated to halfword
%LNKFTH	Fullword value NQ being truncated to halfword
%LNKFTH	Fullword value TCPCKT being truncated to halfword
[Fork LINK opening TIMER.REL.2 for reading]
[LNKLMN	Loading module TIMER from file TIMER.REL.2]
[Fork LINK opening TTYSRV.REL.2 for reading]
[LNKLMN	Loading module TTYSRV from file TTYSRV.REL.2]
%LNKFTH	Fullword value CLTMSG being truncated to halfword
[Fork LINK opening TVTSRV.REL.2 for reading]
[LNKLMN	Loading module TVTSRV from file TVTSRV.REL.2]
%LNKFTH	Fullword value CLOSE1 being truncated to halfword
%LNKFTH	Fullword value LCKCAL being truncated to halfword
%LNKFTH	Fullword value RETJCN being truncated to halfword
[Fork LINK opening VERSIO.REL.2 for reading]
[LNKLMN	Loading module VERSIO from file VERSIO.REL.2]
[Fork LINK opening POSTLD.REL.2 for reading]
[LNKLMN	Loading module POSTLD from file POSTLD.REL.2]
%LNKFTH	Fullword value ERCOD being truncated to halfword
%LNKFTH	Fullword value FAKDDT being truncated to halfword
%LNKFTH	Fullword value XRCOD being truncated to halfword
%LNKFTH	Fullword value ERCODZ being truncated to halfword
%LNKFTH	Fullword value XNCODZ being truncated to halfword
[LNKRLC	Reloc. ctr.	initial value	current value	limit value
	.LOW.		0		140		1000000
	RSCOD		1000		144510		1000000
	INCOD		145000		152213		1000000
	RSDAT		153000		162606		1000000
	PPVAR		163000		167000		1000000
	RSVAR		167000		320404		1000000
	NRVAR		321000		336736		1000000
	NRCOD		451000		655612		1000000
	BGSTR		5001000		5017537		40000000
	BGPTR		5020000		5023772		40000000
	SYPSX		5024000		5024000		40000000
	ERCOD		5714000		5735000		40000000
	XRCOD		6451000		6472526		40000000
	XNCOD		6473000		6572446		40000000
	ENCOD		6573000		6611157		40000000
	POSTCD		37750000	37753377	40000000
	Absolute code loaded]
!GET MON
!START 142
DDT
0$6M   
BUGHLT<HLTADR$12B   
BUGCHK<CHKADR$11B   
DBUGIP/   T2   2
INTBYP/   0   0
DBUGSW/   0   0
EDDTF/   0   0
$G

Stanford Academic Information Resources, TOPS-20 Monitor 7(21017)-4

- Monitor runtime address space -

  Psect	      Start         End       Length       Free         Limit


Section 0/1:

  RSCOD	        1000      144507      143510         270
  INCOD	      145000      152212        5213         565
  RSDAT	      153000      162605        7606         172
  PPVAR	      163000      166777        4000           0
  RSVAR	      167000      320403      131404         374
  NRVAR	      321000      336735       15736          42
  PSVAR	      337000      355777       17000           0
  JSVAR	      356000      450777       73000           0
  NRCOD	      451000      655611      204612         166
  NPVAR	      656000      747000       71001       30777      777777


There are 30 (octal) free pages in section 0.



Symbol section (SYMSEC):

  BGSTR	     5001000     5017536       16537         241
  BGPTR	     5020000     5023771        3772           6

  ERCOD	     5714000     5734777       21000           1     5735000


Extended code section (XCDSEC):

  XRCOD	     6451000     6472525       21526         252
  XNCOD	     6473000     6572445       77446         332
  ENCOD	     6573000     6611156       16157       44621     6655777


Extended variables section (RESSEC):

  ERVAR	    13001000    13004246        3247         531
  ENVAR	    13005000    13046535       41536         242
  EPVAR	    13047000    13250777      202000      527000    13777777


No psect overflows detected.

A potential set of new psect origins will be written into LNKNEW.CCL
and PARNEW.MAC.
[Fork MON opening LNKNEW.CCL.13 for reading, writing]
[Fork MON opening PARNEW.MAC.13 for reading, writing]

Writing sorted bug list 
[Fork MON opening BUGSTRINGS.TXT.10 for reading, writing]
to file BUGSTRINGS.TXT.10

- POSTLD image layout -

       Start         End        Psect

           0         144	Page 0 and RSCOD
         145         152	INCOD
         153         162	RSDAT
         321         606	Symbol table
         714         734	ERCOD
        1001        1017	BGPTR
        1020        1023	BGSTR
        1024        1230	NRCOD
        1451        1472	XRCOD
        1473        1572	XNCOD
        1573        1611	ENCOD

Saving monitor as MONITR.EXE.7
?Illegal instruction SSAVE% at 37,,751342 - JSYS error:
?Quota exceeded
!
!POP

[PHOTO:  Recording terminated Thu 2-Feb-89 11:34AM]
